%!PS-Adobe-3.0 EPSF-3.0
%%Creator: cairo 1.17.4 (https://cairographics.org)
%%CreationDate: Fri Jan 22 02:01:57 2021
%%Pages: 1
%%DocumentData: Clean7Bit
%%LanguageLevel: 2
%%BoundingBox: 177 0 750 511
%%EndComments
%%BeginProlog
50 dict begin
/q { gsave } bind def
/Q { grestore } bind def
/cm { 6 array astore concat } bind def
/w { setlinewidth } bind def
/J { setlinecap } bind def
/j { setlinejoin } bind def
/M { setmiterlimit } bind def
/d { setdash } bind def
/m { moveto } bind def
/l { lineto } bind def
/c { curveto } bind def
/h { closepath } bind def
/re { exch dup neg 3 1 roll 5 3 roll moveto 0 rlineto
      0 exch rlineto 0 rlineto closepath } bind def
/S { stroke } bind def
/f { fill } bind def
/f* { eofill } bind def
/n { newpath } bind def
/W { clip } bind def
/W* { eoclip } bind def
/BT { } bind def
/ET { } bind def
/BDC { mark 3 1 roll /BDC pdfmark } bind def
/EMC { mark /EMC pdfmark } bind def
/cairo_store_point { /cairo_point_y exch def /cairo_point_x exch def } def
/Tj { show currentpoint cairo_store_point } bind def
/TJ {
  {
    dup
    type /stringtype eq
    { show } { -0.001 mul 0 cairo_font_matrix dtransform rmoveto } ifelse
  } forall
  currentpoint cairo_store_point
} bind def
/cairo_selectfont { cairo_font_matrix aload pop pop pop 0 0 6 array astore
    cairo_font exch selectfont cairo_point_x cairo_point_y moveto } bind def
/Tf { pop /cairo_font exch def /cairo_font_matrix where
      { pop cairo_selectfont } if } bind def
/Td { matrix translate cairo_font_matrix matrix concatmatrix dup
      /cairo_font_matrix exch def dup 4 get exch 5 get cairo_store_point
      /cairo_font where { pop cairo_selectfont } if } bind def
/Tm { 2 copy 8 2 roll 6 array astore /cairo_font_matrix exch def
      cairo_store_point /cairo_font where { pop cairo_selectfont } if } bind def
/g { setgray } bind def
/rg { setrgbcolor } bind def
/d1 { setcachedevice } bind def
/cairo_data_source {
  CairoDataIndex CairoData length lt
    { CairoData CairoDataIndex get /CairoDataIndex CairoDataIndex 1 add def }
    { () } ifelse
} def
/cairo_flush_ascii85_file { cairo_ascii85_file status { cairo_ascii85_file flushfile } if } def
/cairo_image { image cairo_flush_ascii85_file } def
/cairo_imagemask { imagemask cairo_flush_ascii85_file } def
%%EndProlog
%%BeginSetup
%%EndSetup
%%Page: 1 1
%%BeginPageSetup
%%PageBoundingBox: 177 0 750 511
%%EndPageSetup
q 177 0 573 511 rectclip
1 0 0 -1 0 750 cm q
0 0.2 0.290196 rg
180.75 735.344 m 177.086 751.406 l 214.289 810.59 l 230.355 814.254 l 262.484
 821.578 l 294.613 828.906 l 287.289 861.035 l 255.156 853.711 l 239.094
 850.047 l 263.895 889.5 l 279.961 893.164 l 276.297 909.23 l 303.445 952.418
 l 698 704.387 l 1102.418 450.16 l 1069.066 397.109 l 1061.742 429.238 l
 1029.613 421.91 l 1022.285 454.039 l 990.156 446.715 l 982.832 478.844 
l 950.703 471.516 l 943.375 503.645 l 911.246 496.32 l 918.574 464.191 l
 933.223 399.934 l 940.551 367.801 l 947.879 335.676 l 915.75 328.348 l 
908.422 360.477 l 901.098 392.605 l 893.77 424.734 l 861.641 417.406 l 868.969
 385.281 l 876.293 353.148 l 883.617 321.023 l 851.488 313.695 l 844.164
 345.824 l 812.035 338.496 l 804.707 370.629 l 836.836 377.953 l 829.512
 410.082 l 797.383 402.758 l 804.707 370.629 l 772.578 363.301 l 765.254
 395.43 l 733.125 388.102 l 725.797 420.234 l 757.926 427.559 l 790.055 
434.887 l 822.184 442.211 l 854.312 449.539 l 886.441 456.863 l 879.117 
488.992 l 846.988 481.668 l 814.859 474.34 l 782.73 467.016 l 775.402 499.145
 l 807.531 506.469 l 839.66 513.797 l 871.793 521.121 l 864.465 553.25 l
 832.336 545.926 l 825.008 578.055 l 792.879 570.727 l 785.555 602.855 l
 753.426 595.531 l 746.098 627.66 l 713.969 620.332 l 721.297 588.203 l 
728.621 556.074 l 735.949 523.945 l 743.273 491.816 l 750.602 459.688 l 
718.473 452.363 l 711.145 484.492 l 703.82 516.621 l 696.492 548.75 l 664.363
 541.422 l 671.691 509.293 l 679.016 477.164 l 686.344 445.035 l 654.211
 437.711 l 646.887 469.836 l 614.758 462.512 l 607.43 494.641 l 639.559 
501.969 l 632.234 534.098 l 600.105 526.77 l 607.434 494.645 l 575.305 487.316
 l 571.641 503.383 l 567.977 519.445 l 535.852 512.117 l 528.523 544.25 
l 560.652 551.574 l 592.781 558.902 l 608.844 562.562 l 624.906 566.227 
l 657.035 573.555 l 689.168 580.879 l 681.84 613.008 l 649.711 605.684 l
 617.586 598.355 l 585.453 591.031 l 578.129 623.16 l 610.258 630.484 l 
642.387 637.812 l 658.449 641.473 l 674.516 645.137 l 670.852 661.203 l 
667.188 677.266 l 635.059 669.938 l 627.734 702.066 l 595.605 694.742 l 
588.277 726.871 l 556.148 719.543 l 548.824 751.672 l 516.691 744.348 l 
531.348 680.09 l 545.996 615.832 l 553.324 583.703 l 521.195 576.375 l 513.871
 608.504 l 499.215 672.762 l 467.086 665.438 l 481.742 601.18 l 489.066 
569.051 l 456.938 561.723 l 449.609 593.852 l 417.48 586.527 l 410.156 618.656
 l 442.285 625.98 l 434.957 658.109 l 402.828 650.785 l 410.156 618.656 
l 378.027 611.328 l 370.699 643.457 l 338.57 636.133 l 331.246 668.262 l
 363.375 675.586 l 395.504 682.914 l 427.633 690.238 l 459.762 697.566 l
 491.891 704.891 l 484.566 737.023 l 452.434 729.695 l 420.305 722.367 l
 388.176 715.043 l 380.852 747.172 l 412.98 754.496 l 445.109 761.824 l 
477.238 769.148 l 469.91 801.281 l 437.781 793.953 l 430.457 826.082 l 398.328
 818.758 l 391 850.883 l 358.871 843.559 l 351.547 875.688 l 319.414 868.363
 l 326.742 836.234 l 334.066 804.105 l 341.395 771.973 l 348.723 739.844
 l 356.047 707.715 l 323.918 700.391 l 316.594 732.52 l 309.266 764.648 
l 301.941 796.777 l 269.809 789.453 l 277.137 757.32 l 284.465 725.191 l
 291.789 693.062 l 259.66 685.738 l 252.332 717.867 l 220.207 710.539 l 
212.879 742.668 l 245.008 749.996 l 237.68 782.125 l 205.551 774.801 l 212.879
 742.668 l h
398.328 818.758 m 405.652 786.629 l 373.523 779.301 l 366.199 811.43 l 
h
595.605 694.742 m 602.93 662.613 l 570.801 655.285 l 563.477 687.414 l 
h
792.879 570.727 m 800.207 538.598 l 768.078 531.273 l 760.75 563.402 l 
h
990.156 446.715 m 997.484 414.586 l 965.355 407.258 l 958.027 439.387 l
 h
930.402 264.09 m 923.074 296.219 l 955.203 303.543 l 987.332 310.871 l 
1019.461 318.195 l 969.855 239.285 l 962.531 271.414 l h
980.008 343 m 972.68 375.129 l 1004.809 382.453 l 1069.066 397.109 l 1044.266
 357.652 l 1012.137 350.328 l h
980.008 343 m f
332.137 998.055 m 1131.105 495.797 l f
53.594363 w
0 J
0 j
[] 0.0 d
4 M q 1 0 0 1 0 0 cm
332.137 998.055 m 1131.105 495.797 l S Q
Q Q
showpage
%%Trailer
end
%%EOF
